{
  "project_info": {
    "project_number": "923004213136",
    "firebase_url": "https://ufind-flutter.firebaseio.com",
    "project_id": "ufind-flutter",
    "storage_bucket": "ufind-flutter.appspot.com"
  },
  "client": [
    {
      "client_info": {
        "mobilesdk_app_id": "1:923004213136:android:b56e173477fef5d1644515",
        "android_client_info": {
          "package_name": "com.example.ufind_flutter"
        }
      },
      "oauth_client": [
        {
          "client_id": "923004213136-jp16clf3vu40hkb73vu6o4utgqsgl72k.apps.googleusercontent.com",
          "client_type": 1,
          "android_info": {
            "package_name": "com.example.ufind_flutter",
            "certificate_hash": "800a88ef17471daa4daefa3f4812d3eaf0815d5c"
          }
        },
        {
          "client_id": "923004213136-75n2s3bb9ag8dc3q8njvrk1vh9rqmgoh.apps.googleusercontent.com",
          "client_type": 3
        }
      ],
      "api_key": [
        {
          "current_key": "AIzaSyAuYibfUX1ZATQgjZnSp71OrKIF80YfmfE"
        }
      ],
      "services": {
        "appinvite_service": {
          "other_platform_oauth_client": [
            {
              "client_id": "923004213136-75n2s3bb9ag8dc3q8njvrk1vh9rqmgoh.apps.googleusercontent.com",
              "client_type": 3
            }
          ]
        }
      }
    }
  ],
  "configuration_version": "1"
}